ccopy_reg
_reconstructor
p1
(cBinHuffmanTree
BinHuffmanTree
p2
c__builtin__
object
p3
NtRp4
(dp5
S'_HuffmanTree__root'
p6
g1
(cHuffmanTreeNode
HuffmanTreeNode
p7
g3
NtRp8
(dp9
S'_HuffmanTreeNode__rightChild'
p10
g1
(g7
g3
NtRp11
(dp12
g10
g1
(g7
g3
NtRp13
(dp14
g10
g1
(g7
g3
NtRp15
(dp16
g10
NsS'_HuffmanTreeNode__leftChild'
p17
NsS'_HuffmanTreeNode__symbols'
p18
c__builtin__
set
p19
((lp20
S'\n'
atRp21
sS'_HuffmanTreeNode__weight'
p22
I1720
sbsg17
g1
(g7
g3
NtRp23
(dp24
g10
g1
(g7
g3
NtRp25
(dp26
g10
g1
(g7
g3
NtRp27
(dp28
g10
g1
(g7
g3
NtRp29
(dp30
g10
Nsg17
Nsg18
g19
((lp31
S'6'
atRp32
sg22
I203
sbsg17
g1
(g7
g3
NtRp33
(dp34
g10
g1
(g7
g3
NtRp35
(dp36
g10
Nsg17
Nsg18
g19
((lp37
S'I'
atRp38
sg22
I102
sbsg17
g1
(g7
g3
NtRp39
(dp40
g10
Nsg17
Nsg18
g19
((lp41
S'9'
atRp42
sg22
I100
sbsg18
g19
((lp43
S'9'
aS'I'
atRp44
sg22
I202
sbsg18
g19
((lp45
S'9'
aS'I'
aS'6'
atRp46
sg22
I405
sbsg17
g1
(g7
g3
NtRp47
(dp48
g10
Nsg17
Nsg18
g19
((lp49
S'3'
atRp50
sg22
I405
sbsg18
g19
((lp51
S'9'
aS'I'
aS'3'
aS'6'
atRp52
sg22
I810
sbsg17
g1
(g7
g3
NtRp53
(dp54
g10
g1
(g7
g3
NtRp55
(dp56
g10
g1
(g7
g3
NtRp57
(dp58
g10
Nsg17
Nsg18
g19
((lp59
S'N'
atRp60
sg22
I201
sbsg17
g1
(g7
g3
NtRp61
(dp62
g10
Nsg17
Nsg18
g19
((lp63
S'R'
atRp64
sg22
I195
sbsg18
g19
((lp65
S'R'
aS'N'
atRp66
sg22
I396
sbsg17
g1
(g7
g3
NtRp67
(dp68
g10
Nsg17
Nsg18
g19
((lp69
S'('
atRp70
sg22
I382
sbsg18
g19
((lp71
S'('
aS'R'
aS'N'
atRp72
sg22
I778
sbsg18
g19
((lp73
S'9'
aS'3'
aS'R'
aS'6'
aS'I'
aS'('
aS'N'
atRp74
sg22
I1588
sbsg18
g19
((lp75
S'I'
aS'('
aS'\n'
aS'N'
aS'3'
aS'R'
aS'6'
aS'9'
atRp76
sg22
I3308
sbsg17
g1
(g7
g3
NtRp77
(dp78
g10
g1
(g7
g3
NtRp79
(dp80
g10
g1
(g7
g3
NtRp81
(dp82
g10
Nsg17
Nsg18
g19
((lp83
S'g'
atRp84
sg22
I747
sbsg17
g1
(g7
g3
NtRp85
(dp86
g10
g1
(g7
g3
NtRp87
(dp88
g10
g1
(g7
g3
NtRp89
(dp90
g10
Nsg17
Nsg18
g19
((lp91
S'7'
atRp92
sg22
I195
sbsg17
g1
(g7
g3
NtRp93
(dp94
g10
g1
(g7
g3
NtRp95
(dp96
g10
g1
(g7
g3
NtRp97
(dp98
g10
g1
(g7
g3
NtRp99
(dp100
g10
g1
(g7
g3
NtRp101
(dp102
g10
Nsg17
Nsg18
g19
((lp103
S'j'
atRp104
sg22
I13
sbsg17
g1
(g7
g3
NtRp105
(dp106
g10
Nsg17
Nsg18
g19
((lp107
S'.'
atRp108
sg22
I13
sbsg18
g19
((lp109
S'j'
aS'.'
atRp110
sg22
I26
sbsg17
g1
(g7
g3
NtRp111
(dp112
g10
Nsg17
Nsg18
g19
((lp113
S'\\'
atRp114
sg22
I25
sbsg18
g19
((lp115
S'j'
aS'\\'
aS'.'
atRp116
sg22
I51
sbsg17
g1
(g7
g3
NtRp117
(dp118
g10
g1
(g7
g3
NtRp119
(dp120
g10
g1
(g7
g3
NtRp121
(dp122
g10
Nsg17
Nsg18
g19
((lp123
S'C'
atRp124
sg22
I12
sbsg17
g1
(g7
g3
NtRp125
(dp126
g10
Nsg17
Nsg18
g19
((lp127
S'"'
atRp128
sg22
I12
sbsg18
g19
((lp129
S'C'
aS'"'
atRp130
sg22
I24
sbsg17
g1
(g7
g3
NtRp131
(dp132
g10
Nsg17
Nsg18
g19
((lp133
S'r'
atRp134
sg22
I24
sbsg18
g19
((lp135
S'C'
aS'"'
aS'r'
atRp136
sg22
I48
sbsg18
g19
((lp137
S'C'
aS'"'
aS'j'
aS'r'
aS'\\'
aS'.'
atRp138
sg22
I99
sbsg17
g1
(g7
g3
NtRp139
(dp140
g10
g1
(g7
g3
NtRp141
(dp142
g10
g1
(g7
g3
NtRp143
(dp144
g10
Nsg17
Nsg18
g19
((lp145
S'u'
atRp146
sg22
I22
sbsg17
g1
(g7
g3
NtRp147
(dp148
g10
Nsg17
Nsg18
g19
((lp149
S'o'
atRp150
sg22
I22
sbsg18
g19
((lp151
S'u'
aS'o'
atRp152
sg22
I44
sbsg17
g1
(g7
g3
NtRp153
(dp154
g10
g1
(g7
g3
NtRp155
(dp156
g10
g1
(g7
g3
NtRp157
(dp158
g10
Nsg17
Nsg18
g19
((lp159
S'A'
atRp160
sg22
I11
sbsg17
g1
(g7
g3
NtRp161
(dp162
g10
Nsg17
Nsg18
g19
((lp163
S'G'
atRp164
sg22
I10
sbsg18
g19
((lp165
S'A'
aS'G'
atRp166
sg22
I21
sbsg17
g1
(g7
g3
NtRp167
(dp168
g10
Nsg17
Nsg18
g19
((lp169
S'm'
atRp170
sg22
I20
sbsg18
g19
((lp171
S'A'
aS'm'
aS'G'
atRp172
sg22
I41
sbsg18
g19
((lp173
S'A'
aS'm'
aS'u'
aS'G'
aS'o'
atRp174
sg22
I85
sbsg18
g19
((lp175
S'A'
aS'C'
aS'"'
aS'G'
aS'j'
aS'm'
aS'o'
aS'.'
aS'r'
aS'u'
aS'\\'
atRp176
sg22
I184
sbsg18
g19
((lp177
S'A'
aS'C'
aS'"'
aS'G'
aS'j'
aS'm'
aS'o'
aS'.'
aS'r'
aS'u'
aS'7'
aS'\\'
atRp178
sg22
I379
sbsg17
g1
(g7
g3
NtRp179
(dp180
g10
Nsg17
Nsg18
g19
((lp181
S'a'
atRp182
sg22
I363
sbsg18
g19
((lp183
S'a'
aS'A'
aS'C'
aS'"'
aS'G'
aS'j'
aS'm'
aS'o'
aS'.'
aS'r'
aS'u'
aS'7'
aS'\\'
atRp184
sg22
I742
sbsg18
g19
((lp185
S'a'
aS'A'
aS'C'
aS'"'
aS'G'
aS'g'
aS'j'
aS'm'
aS'o'
aS'.'
aS'r'
aS'u'
aS'7'
aS'\\'
atRp186
sg22
I1489
sbsg17
g1
(g7
g3
NtRp187
(dp188
g10
g1
(g7
g3
NtRp189
(dp190
g10
Nsg17
Nsg18
g19
((lp191
S'2'
atRp192
sg22
I690
sbsg17
g1
(g7
g3
NtRp193
(dp194
g10
Nsg17
Nsg18
g19
((lp195
S'1'
atRp196
sg22
I679
sbsg18
g19
((lp197
S'1'
aS'2'
atRp198
sg22
I1369
sbsg18
g19
((lp199
S'A'
aS'C'
aS'G'
aS'r'
aS'\\'
aS'a'
aS'"'
aS'g'
aS'j'
aS'm'
aS'o'
aS'.'
aS'1'
aS'2'
aS'u'
aS'7'
atRp200
sg22
I2858
sbsg18
g19
((lp201
S'A'
aS'C'
aS'G'
aS'I'
aS'\n'
aS'N'
aS'R'
aS'r'
aS'\\'
aS'a'
aS'"'
aS'g'
aS'('
aS'j'
aS'm'
aS'o'
aS'.'
aS'1'
aS'3'
aS'2'
aS'u'
aS'7'
aS'6'
aS'9'
atRp202
sg22
I6166
sbsg17
g1
(g7
g3
NtRp203
(dp204
g10
g1
(g7
g3
NtRp205
(dp206
g10
g1
(g7
g3
NtRp207
(dp208
g10
g1
(g7
g3
NtRp209
(dp210
g10
g1
(g7
g3
NtRp211
(dp212
g10
Nsg17
Nsg18
g19
((lp213
S'0'
atRp214
sg22
I328
sbsg17
g1
(g7
g3
NtRp215
(dp216
g10
g1
(g7
g3
NtRp217
(dp218
g10
g1
(g7
g3
NtRp219
(dp220
g10
g1
(g7
g3
NtRp221
(dp222
g10
g1
(g7
g3
NtRp223
(dp224
g10
Nsg17
Nsg18
g19
((lp225
S'i'
atRp226
sg22
I20
sbsg17
g1
(g7
g3
NtRp227
(dp228
g10
Nsg17
Nsg18
g19
((lp229
S'c'
atRp230
sg22
I19
sbsg18
g19
((lp231
S'i'
aS'c'
atRp232
sg22
I39
sbsg17
g1
(g7
g3
NtRp233
(dp234
g10
Nsg17
Nsg18
g19
((lp235
S'e'
atRp236
sg22
I39
sbsg18
g19
((lp237
S'i'
aS'c'
aS'e'
atRp238
sg22
I78
sbsg17
g1
(g7
g3
NtRp239
(dp240
g10
g1
(g7
g3
NtRp241
(dp242
g10
g1
(g7
g3
NtRp243
(dp244
g10
Nsg17
Nsg18
g19
((lp245
S'H'
atRp246
sg22
I19
sbsg17
g1
(g7
g3
NtRp247
(dp248
g10
Nsg17
Nsg18
g19
((lp249
S'T'
atRp250
sg22
I18
sbsg18
g19
((lp251
S'H'
aS'T'
atRp252
sg22
I37
sbsg17
g1
(g7
g3
NtRp253
(dp254
g10
Nsg17
Nsg18
g19
((lp255
S'_'
atRp256
sg22
I36
sbsg18
g19
((lp257
S'H'
aS'T'
aS'_'
atRp258
sg22
I73
sbsg18
g19
((lp259
S'c'
aS'e'
aS'T'
aS'i'
aS'H'
aS'_'
atRp260
sg22
I151
sbsg17
g1
(g7
g3
NtRp261
(dp262
g10
Nsg17
Nsg18
g19
((lp263
S'4'
atRp264
sg22
I143
sbsg18
g19
((lp265
S'c'
aS'e'
aS'4'
aS'i'
aS'H'
aS'_'
aS'T'
atRp266
sg22
I294
sbsg18
g19
((lp267
S'c'
aS'e'
aS'i'
aS'H'
aS'0'
aS'4'
aS'_'
aS'T'
atRp268
sg22
I622
sbsg17
g1
(g7
g3
NtRp269
(dp270
g10
Nsg17
Nsg18
g19
((lp271
S'S'
atRp272
sg22
I453
sbsg18
g19
((lp273
S'c'
aS'e'
aS'i'
aS'H'
aS'0'
aS'S'
aS'4'
aS'_'
aS'T'
atRp274
sg22
I1075
sbsg17
g1
(g7
g3
NtRp275
(dp276
g10
Nsg17
Nsg18
g19
((lp277
S"'"
atRp278
sg22
I886
sbsg18
g19
((lp279
S'c'
aS'e'
aS"'"
aS'i'
aS'H'
aS'0'
aS'S'
aS'4'
aS'_'
aS'T'
atRp280
sg22
I1961
sbsg17
g1
(g7
g3
NtRp281
(dp282
g10
g1
(g7
g3
NtRp283
(dp284
g10
g1
(g7
g3
NtRp285
(dp286
g10
Nsg17
Nsg18
g19
((lp287
S'p'
atRp288
sg22
I440
sbsg17
g1
(g7
g3
NtRp289
(dp290
g10
g1
(g7
g3
NtRp291
(dp292
g10
g1
(g7
g3
NtRp293
(dp294
g10
Nsg17
Nsg18
g19
((lp295
S'd'
atRp296
sg22
I112
sbsg17
g1
(g7
g3
NtRp297
(dp298
g10
g1
(g7
g3
NtRp299
(dp300
g10
g1
(g7
g3
NtRp301
(dp302
g10
Nsg17
Nsg18
g19
((lp303
S'f'
atRp304
sg22
I29
sbsg17
g1
(g7
g3
NtRp305
(dp306
g10
g1
(g7
g3
NtRp307
(dp308
g10
Nsg17
Nsg18
g19
((lp309
S'h'
atRp310
sg22
I14
sbsg17
g1
(g7
g3
NtRp311
(dp312
g10
Nsg17
Nsg18
g19
((lp313
S'B'
atRp314
sg22
I14
sbsg18
g19
((lp315
S'h'
aS'B'
atRp316
sg22
I28
sbsg18
g19
((lp317
S'h'
aS'B'
aS'f'
atRp318
sg22
I57
sbsg17
g1
(g7
g3
NtRp319
(dp320
g10
g1
(g7
g3
NtRp321
(dp322
g10
Nsg17
Nsg18
g19
((lp323
S'n'
atRp324
sg22
I28
sbsg17
g1
(g7
g3
NtRp325
(dp326
g10
g1
(g7
g3
NtRp327
(dp328
g10
Nsg17
Nsg18
g19
((lp329
S'y'
atRp330
sg22
I13
sbsg17
g1
(g7
g3
NtRp331
(dp332
g10
Nsg17
Nsg18
g19
((lp333
S'w'
atRp334
sg22
I13
sbsg18
g19
((lp335
S'y'
aS'w'
atRp336
sg22
I26
sbsg18
g19
((lp337
S'y'
aS'w'
aS'n'
atRp338
sg22
I54
sbsg18
g19
((lp339
S'B'
aS'w'
aS'f'
aS'y'
aS'h'
aS'n'
atRp340
sg22
I111
sbsg18
g19
((lp341
S'B'
aS'd'
aS'w'
aS'f'
aS'y'
aS'h'
aS'n'
atRp342
sg22
I223
sbsg17
g1
(g7
g3
NtRp343
(dp344
g10
g1
(g7
g3
NtRp345
(dp346
g10
Nsg17
Nsg18
g19
((lp347
S'l'
atRp348
sg22
I107
sbsg17
g1
(g7
g3
NtRp349
(dp350
g10
Nsg17
Nsg18
g19
((lp351
S'b'
atRp352
sg22
I106
sbsg18
g19
((lp353
S'b'
aS'l'
atRp354
sg22
I213
sbsg18
g19
((lp355
S'B'
aS'd'
aS'f'
aS'h'
aS'l'
aS'n'
aS'b'
aS'w'
aS'y'
atRp356
sg22
I436
sbsg18
g19
((lp357
S'B'
aS'd'
aS'f'
aS'h'
aS'l'
aS'n'
aS'p'
aS'b'
aS'w'
aS'y'
atRp358
sg22
I876
sbsg17
g1
(g7
g3
NtRp359
(dp360
g10
g1
(g7
g3
NtRp361
(dp362
g10
Nsg17
Nsg18
g19
((lp363
S's'
atRp364
sg22
I432
sbsg17
g1
(g7
g3
NtRp365
(dp366
g10
g1
(g7
g3
NtRp367
(dp368
g10
g1
(g7
g3
NtRp369
(dp370
g10
Nsg17
Nsg18
g19
((lp371
S'5'
atRp372
sg22
I104
sbsg17
g1
(g7
g3
NtRp373
(dp374
g10
Nsg17
Nsg18
g19
((lp375
S'8'
atRp376
sg22
I103
sbsg18
g19
((lp377
S'8'
aS'5'
atRp378
sg22
I207
sbsg17
g1
(g7
g3
NtRp379
(dp380
g10
Nsg17
Nsg18
g19
((lp381
S't'
atRp382
sg22
I205
sbsg18
g19
((lp383
S'8'
aS'5'
aS't'
atRp384
sg22
I412
sbsg18
g19
((lp385
S'8'
aS's'
aS'5'
aS't'
atRp386
sg22
I844
sbsg18
g19
((lp387
S'B'
aS'd'
aS'f'
aS'h'
aS'l'
aS'n'
aS'p'
aS's'
aS'b'
aS'5'
aS't'
aS'w'
aS'y'
aS'8'
atRp388
sg22
I1720
sbsg18
g19
((lp389
S'B'
aS'p'
aS'H'
aS'S'
aS'T'
aS'_'
aS'c'
aS'b'
aS'e'
aS'd'
aS"'"
aS'f'
aS'i'
aS'h'
aS'l'
aS'n'
aS'0'
aS's'
aS'5'
aS'4'
aS'w'
aS'y'
aS'8'
aS't'
atRp390
sg22
I3681
sbsg18
g19
((lp391
S'\n'
aS'"'
aS"'"
aS'('
aS'.'
aS'1'
aS'0'
aS'3'
aS'2'
aS'5'
aS'4'
aS'7'
aS'6'
aS'9'
aS'8'
aS'A'
aS'C'
aS'B'
aS'G'
aS'I'
aS'H'
aS'N'
aS'S'
aS'R'
aS'T'
aS'\\'
aS'_'
aS'a'
aS'c'
aS'b'
aS'e'
aS'd'
aS'g'
aS'f'
aS'i'
aS'h'
aS'j'
aS'm'
aS'l'
aS'o'
aS'n'
aS'p'
aS's'
aS'r'
aS'u'
aS't'
aS'w'
aS'y'
atRp392
sg22
I9847
sbsS'_HuffmanTree__dict'
p393
(dp394
sb.